﻿NO,2
NAME,라비아타
CALLNAME,라비아타
MASTERNAME,주인님
;ISASSI,0,		; 助手

CSTR,풀네임,라비아타 프로토타입
CSTR,종류,바이오로이드
CSTR,타입,중장
CSTR,역할군,공격기
CSTR,부대,배틀 메이드 프로젝트
CSTR,클래스,Weapon Master
CSTR,주무기,'트롤스버드' 융합로 탈착식 플라즈마 양손검

; 基礎
BASE,체력,2400
BASE,기력,1400
BASE,정신력,2500
BASE,신장,1880
BASE,체중,1800
BASE,가슴,
BASE,허리,
BASE,엉덩이,
BASE,음모,1000

; 素質
TALENT,성별,1
TALENT,V조임,750
TALENT,A조임,850
TALENT,머리색,0x3B3B3B
TALENT,머리길이,5
TALENT,처녀,1
TALENT,애널처녀,1
TALENT,키스미경험,1
TALENT,낙관적,1
TALENT,선을넘지않음,1
TALENT,아픔에강함,1
TALENT,수수께끼의매력,1
TALENT,행운,1

; 能力 (SS:0 S:1 A:2 B:3 C:4 D:5 E:6)
ABL,랭크,0,		; SS
ABL,공격랭크,1,	; S
ABL,속도랭크,4,	; C
ABL,보조랭크,4,	; C
ABL,방어랭크,3,	; B
ABL,지구력랭크,2,	; A
ABL,공격빈도랭크,4,	; C
;ABL:HP,271,
ABL,공격,67
ABL,방어,19
ABL,치명,75,		;7.5%
ABL,적중,1280,	;128%
ABL,회피,100,		;10%
ABL,속도,370,		;3.70
ABL,가창,34
ABL,요리,34
ABL,촬영,50

ABL,C감,0
ABL,V감,0
ABL,A감,0
ABL,B감,0
ABL,M감,0
ABL,순종,2
ABL,욕망,0
ABL,기교,0
ABL,성지식,2
ABL,봉사,1
ABL,성교,0
ABL,레즈,0
ABL,노출,0
ABL,마조,0
ABL,새드,0
ABL,주량,1
ABL,요도명기도,0
ABL,V명기도,0
ABL,A명기도,0
ABL,목명기도,0
ABL,도착도,0

; 経験
;EXP,V경험,1
;EXP,자위경험,10

; 刻印
;MARK,반발각인,1

; 珠
;JUEL,쾌C,1

; フラグ
CFLAG,호감도,1000
;CFLAG,좋아하는체위,1
;CFLAG,패시브스킬

; 装着物
;EQUIP,칩1,

; 相性
RELATION,3,200
