﻿NO,118
NAME,LRL,		; 좌우좌
CALLNAME,짐
MASTERNAME,사령관
;ISASSI,0,		; 助手

CSTR,풀네임,LRL,	; Long Range Light
CSTR,종류,바이오로이드
CSTR,타입,경장
CSTR,역할군,지원기
CSTR,부대,퍼블릭 서번트
CSTR,클래스,Ancient Cyclops Princess
CSTR,주무기,Dragon Slayer

; 基礎
BASE,체력,1800
BASE,기력,1400
BASE,정신력,2500
BASE,신장,1220
BASE,체중,240
BASE,가슴,
BASE,허리,
BASE,엉덩이,
BASE,음모,0

; 素質
TALENT,성별,1
TALENT,V조임,750
TALENT,A조임,850
TALENT,머리색,0x3B3B3B
TALENT,머리길이,5
TALENT,처녀,1
TALENT,애널처녀,1
TALENT,키스미경험,1

TALENT,겁쟁이,1
TALENT,프라이드높음,1
TALENT,호기심,1
TALENT,주목받기원함,1
TALENT,아픔에약함,1
TALENT,회복빠름,1
TALENT,유치,1
TALENT,오줌싸개,1
TALENT,용살자,1

; 能力 (SS:0 S:1 A:2 B:3 C:4 D:5 E:6)
ABL,랭크,3,		; B
ABL,공격랭크,6,	; E
ABL,속도랭크,3,	; B
ABL,보조랭크,2,	; A
ABL,방어랭크,6,	; E
ABL,지구력랭크,4,	; C
ABL,공격빈도랭크,3,	; B
;ABL,HP,147
ABL,공격,30
ABL,방어,5
ABL,치명,157,		;15.7%
ABL,적중,1370,	;137%
ABL,회피,277,		;27.7%
ABL,속도,427,		;4.27
ABL,가창,0
ABL,요리,0
ABL,촬영,0

ABL,C감,0
ABL,V감,0
ABL,A감,0
ABL,B감,0
ABL,M감,0
ABL,순종,1
ABL,욕망,0
ABL,기교,0
ABL,성지식,0
ABL,봉사,0
ABL,성교,0
ABL,레즈,0
ABL,노출,0
ABL,마조,0
ABL,새드,0
ABL,주량,0
ABL,요도명기도,0
ABL,V명기도,0
ABL,A명기도,0
ABL,목명기도,0
ABL,도착도,0

; 経験
;EXP,V경험,1
;EXP,자위경험,10

; 刻印
;MARK,반발각인,1

; 珠
;JUEL,쾌C,1

; フラグ
CFLAG,호감도,1000
;CFLAG,좋아하는체위,1
;CFLAG,패시브스킬

; 装着物
;EQUIP,칩1,

; 相性
RELATION,3,200
RELATION,92,200
RELATION,121,150
RELATION,78,200
