﻿;Cflag.csv 캐릭터 1차원 배열, 캐릭터 고유 정보를 관리한다.
;NO,CFLAGNAME
; 함락 정보
1,조교플래그,; 1:조교가능, 2:조수가능
2,호감도
3,의존도
4,종속도
5,지배도

7,행동참가중,	;복수행동에 참가 중
8,인계캐릭터,	;계승한캐릭터
9,행동완료

; 패시브스킬(x~x+4, 최대 4개)
; 액티브스킬(x~x+2, 최대 2개)

10,배치,		;3,6,9:전열, 2,5,8:중열, 1,4,7:후열
11,수복중,		;
15,EXP,		; 전투 경험치
16,상태플래그,	;0:통상,1:임월,2:육아중,3:상처,4:육아중의 아이,5:실종,6:탐사/침공중
17,이상경험플래그
18,신체검사플래그,	; 0:안함,1:기본사이즈검사,2:비밀사이즈검사

; H경험 관련 ( 20 ~ 49 )
20,좋아하는체위
21,마지막조교일
22,처녀상실기념일
23,처녀상실대상
24,동정상실기념일
25,동정상실대상
26,애널처녀상실기념일
27,애널처녀상실대상
28,첫키스상실기념일
29,첫키스상실대상
30,위험일

31,V정액량
32,A정액량
33,B정액량
34,U정액량
35,M정액량,	;정음량
36,임신의거유화
;33,일시적모유체질,		;임신에 의해 일시적으로 모유체질이 되어 있는 플래그. 영속 시키는 경우는 0.
37,임신기간
38,남아출산수
39,여아출산수
40,육아기간
;40,피임약남은턴
;41,약물의존,		;마약 따위를 사용해 증가한다

; 전투 관련 ( 50 ~ 59, 장비에 의해 상시 증감된 수치 )
50,총공격증감
51,총방어증감
52,총치명증감
53,총적중증감
54,총회피증감
55,총속도증감
;56,총체력증감	;체력 기력은 실시간으로 반영된다
;57,총기력증감
58,받는피해경감
59,받는피해경감횟수

; 일상 이벤트용 ( 60 ~ 79 )
60,제모
61,팬티몰수
62,V체크
63,A체크
64,수면
65,도시락,			;도시락싸줌
66,성처리,			;성처리해줌
67,성처리완료
68,상시V바이브일수
69,상시A플래그일수
70,상시U플래그일수
71,취기누적치,		;[폭주가]취득의 조건 판정용

; 관계 정보 ( 80 ~ 89 )
80,부친
81,모친
82,아이의부친
83,육아대상


;이미지변환용 ( 90 ~ 99 )
90,스킨,		;스킨(0:없음,)
91,선탠


;기타
100,범용구상패턴

;경험
;150～169:질내사정 이력(임신시에 종친이 될 수 있는 캐릭터의 ID
;170～189:질내사정 이력의 기록으로부터 경과한 시간(1기 마다+1, 5기에 삭제)
;190～199:기분에 관한 PALAM(10～19)를 보존하는 변수 ※BEGIN TRAIN에 의한 초기화 대책
;

; 시간에 따른 성장치(Base xx와 매칭된다)
910,신장증감치,
911,체중증감치,
912,가슴증감치,
913,허리증감치,
914,엉덩이증감치,
915,페니스증감치,
916,음모증감치,;		음모 성장도
917,겨털증감치,;		겨털 성장도
918,머리길이증감치,;

;200～2999:구상으로 자유롭게 사용 가능
;

; 아래 기념일은 21010101 값으로 저장됨
;3111,생일,
3112,처음만난날,
3113,타락한날,
3114,결혼기념일,
3115,계약기념일,
3116,함락된날,
3117,첫임신일,
3128,기념일플래그, ; 1bit:3110 ~ 64bit