﻿;Cstr.csv, 캐릭터 1차원 문자열, 
; 캐릭터 기본 설정 (장비 장착 여부 확인에 쓰임)
0,풀네임
1,종류,	;인간,바이오로이드,로봇
2,타입,	;경장,기동,중장
3,역할군,	;공격기,보호기,지원기
4,부대
5,클래스
6,주무기

;List/Dictionary Strings 출력용으로만 사용 ( 10 ~ 20 )
;아래는 ADD Character 시 세팅됨, 변하지 않는 문자열 --- SAVESTR에 넣어야할지도..
10,함락소질리스트,	; TALENT번호 리스트, 캐릭터 추가시 및 소질 획득시 추가됨.
11,성격소질리스트,
12,체질소질리스트,
13,특수소질리스트,
14,성감대소질리스트,
15,착용의상리스트,
;12,캐릭터상성설명,	;[캐릭터NO:상성치], ...
;13,캐릭터스킬설명,	;[]
;아래는 각 출력하기 전에 갱신된다.
;15,캐릭터전투설명,	;[공격:],[방어:],[치명:],[적중:],[회피:],[속도:]
;16,캐릭터장비설명,	;[칩1:],[칩2:],[OS:],[보조장비:]
;17,배치설명,		;[0:],[1:],[2:],[3:],[4:],[5:],[6:],[7:],[8:],[9:]
19,배양고정소질리스트,	;배양시 일부 소질 강제 고정리스트. 

; 캐릭터 주대사
20,제조대사
21,전투시작대사
22,전투종료대사
23,조교시작대사
24,조교종료대사
25,아침인사
26,저녁인사

; 캐릭터랜덤대사
31,낮은호감도대사1
32,낮은호감도대사2
33,낮은호감도대사3
34,중간호감도대사1
35,중간호감도대사2
36,중간호감도대사3
37,높은호감도대사1
38,높은호감도대사2
39,높은호감도대사3

; Equip과 동일한 번호를 사용한다. (Dictionay 써도 될듯한데..)
;40～49	현시점에서 입고 있는 의상의 기록으로 사용
;50～59	마음에듬 의상의 기록으로 사용
40,팬티
41,브래지어
42,상의
43,하의
44,보디슈츠
45,겉옷
46,양말
47,신발
48,장갑
49,악세사리

50,각종이벤트
51,V내사정이력
52,A내사정이력
53,정음이력
54,유내사정이력
55,방광내사정이력

60,AV타이틀0
61,AV타이틀1
62,AV타이틀2
63,AV타이틀3
64,AV타이틀4
65,AV타이틀5
66,AV타이틀6
67,AV타이틀7
68,AV타이틀8
69,AV타이틀9

70,일기기록0
71,일기기록1
72,일기기록2
73,일기기록3
74,일기기록4
75,일기기록5
76,일기기록6
77,일기기록7
78,일기기록8
79,일기기록9

80,성희롱이력
81,성희롱중
82,성희롱끝
83,직전의성희롱
84,실행가능명령
85,요바이
86,아침기습
87,난교
88,비디오기록
89,촬영중비디오의내용
90,비디오제목생성용플래그
91,첫경험대상

;90～	娘の名前（娘追加前の予約）

;1,페니스관찰플래그
;2,취향의체위
;3,V요도확장도
;4,P요도확장도
;5,V수용이력
;6,A수용이력

;21～29	캐릭터의구상で설정管理

