﻿;コード,9224517,								;GAMEBASE_GAMECODE
バージョン,00001,							;GAMEBASE_VERSION
ウィンドウタイトル,eraLaoK,				;WINDOW_TITLE
タイトル,에라 라스트오리진(eraLaoK),							;GAMEBASE_TITLE
作者,Tester,								;GAMEBASE_AUTHOR
製作年,2020-2020,							;GAMEBASE_YEAR
バージョン違い認める,10000,					;GAMEBASE_ALLOWVERSION
追加情報,※이것은조교SLG작성툴erakanon의개변·재배포입니다.,;GAMEBASE_INFO

