;ITEM.csv
;ITEM: 1차원 배열
;ITEMSALES: 1차원 배열, 구매 가능 여부
;ITEMPRICE: 1차원 배열

;0～30番台：조교아이템
0,로터,200,
1,바이브,500,
2,전기안마기,500,
3,애널바이브,500,
4,페니스밴드,200,
5,아이마스크,400,
6,비디오카메라,3000,
7,클리캡,200,
8,니플캡,300,
9,재갈세트,500,
10,채찍,200,
11,바늘,500,
12,오나홀,400,
13,플레이매트,1000,;목욕탕で플레이の幅が広がる
14,구속도구,2000,
15,관장기＋플러그,3000,
16,피어스세트,2000
17,착유기,1500,
18,개목걸이,500,;야외플레이が가능になる
19,촉수사역술,10000,;촉수조교が가능になる
20,에이프런,2000,;새댁플레이が가능になる
21,큰거울,1000,;수치플레이が가능になる
22,공기펌프,300,
23,확장벌룬,1000,
24,요도고문키트,2000,
25,애널비즈,500
26,보온병,2000
27,밤의양산,200,;밤の国製の일傘. 흡혈귀でも, これをもてば낮間の外出가능

28,예비,0
29,예비,0

;30番台：소비아이템
30,로션,50,
31,미약,200,
32,이뇨제,100,;방뇨플레이が가능になる
33,비디오테이프,300,;비디오카메라の使用に필요. 놀림捨て
34,진정제,300,
35,배란유발제,500
36,입욕제,100,;お風呂のおとも
37,근육이완제,500,;확장조교の奥の손

38,예비,0
39,예비,0

;40番台：인센스
40,재스민,100,;무드 업（小）
41,라벤더,400,;무드 업（中）
42,머스크,1000,;무드 업（大）
43,샌들우드,700,;무드 업（中）＆체력회복（中）
44,로즈마리,700,;무드 업（中）＆정력회복（中）

45,예비,0
46,예비,0
47,예비,0
48,예비,0

49,프랭킨센스,3000,;무드 업（大）＆체력회복（大）＆정력회복（大）

;50番台：조합or금단의지식
;조합지식
50,건강해지는약,500,;체력を회복する
51,후타나리약,2000,;女を후타나리가 되거나, 돌아오거나する

52,예비,0
53,예비,0
54,예비,0

;금단의지식
55,파란드롭스,2000,;体が成長するドロップ. 모유체질이 된다
56,빨간드롭스,2000,;体が若返るドロップ. 처녀膜が再生するor모유체질を喪失する
57,검은드롭스,2000,;성별이 반전된다ドロップ. 임신, 출산경험があると効かない
58,하얀드롭스,2000,;体調を整えるドロップ. 실금癖等を치료する

59,예비,0

;60番台：소질系아이템
60,☆기교Lv,5000,;플레이ヤーの기교を増減させる
61,☆손대중,1000,;손대중커맨드が가능になる
62,☆불결무시,1000,;プレイヤーにTALENT:불결무시がつく

;63,☆새드,5000,;プレイヤーにTALENT:새드がつく
63,예비,0

64,☆금단의지식,20000,;プレイヤーにTALENT:금단의지식がつく
65,☆조합대전,5000,;현명함キャラに조합지식を覚えさせる
66,☆조교지식,2000,;현명함キャラに体の仕組みについての知識を覚えさせる

67,예비,0
68,예비,0
69,예비,0

;70番台：身嗜みor특수아이템
70,발모제,200
71,탈모제,200
72,피임약,1000
73,긴급피임약,100
74,피임의부적,3000

75,예비,0
76,예비,0
77,예비,0

78,음마의물방울,1000
79,정액저축량,0

80,예비,0
81,예비,0
82,예비,0
83,예비,0
84,예비,0
85,예비,0
86,예비,0
87,예비,0
88,예비,0
89,예비,0

;90番台：특수아이템
90,서약의두루마리,1000,;同意なしには손放さないことを서약する
91,서약의반지,10000,;愛を伝える

92,예비,0
93,예비,0

94,비뚤어진시계,3000,;時を操る
95,호접지몽,5000,;신체를 入れ換える
96,사고연마의돌,5000,;악세사리を研ぎ澄ます高価な石
97,레벨리미터,10,;MASTERを弱くすることができる
98,기억소거약,10000,;조교の記憶を消します
99,문드롭스,500,;몽마가 아주 좋아하는 사탕

;300番台　수집품
300,도자기스푼,100
301,도자기찻잔,200
302,은스푼,800
303,은찻잔,1600
304,미스릴스푼,3200
305,미스릴찻잔,6400

310,로즈닐의시집,390,;달콤한말습득＆강화
311,사고를태우는불꽃,100,;악세사리の一番上の効果を削る
312,배추흰나비,100,;악세사리を合成する

320,아련한팔찌,2000
321,아련한소매장식,2000
322,아련한장갑,2000
323,아련한장식띠,2000
324,아련한반지,5000
325,아련한보석,20000

;330番台　조합で作った아이템(ここでの価格は음마의물방울の필요数)
330,거근약,3
331,축근약,3
332,박피약,3
333,신피약,3
334,풍유환,3
335,축유환,3
336,거인의약,3
337,소인의약,3
338,무지개의약,3
339,풍둔약,3
340,축둔약,3

350,정액각인,30

;400番台　수집품（ぱんつ）
401,몽마의비키니
402,소악마의스패츠

410,라미아의비늘
411,하피의깃뿌리

;500番台　衣装
500,여교사,2000
501,기모노,2000
502,메이드복,2000
503,체조복,2000
504,간호사복,2000
505,차이나드레스,2000
506,세라복,2000
507,무녀복,2000
508,베이비돌,2000
509,웨딩드레스,2000
510,고스로리드레스,2000
511,치어리더,2000
512,파자마,2000

520,비키니,2000
521,학교수영복,2000
522,레오타드,2000
523,본디지,2000
524,바니슈트,2000
525,원피스수영복,2000

530,레이스팬티,0

550,검정스타킹,0

;유전자 씨앗 (600 ~ 799)
602,라비아타의 씨앗,0
603,콘스탄챠의 씨앗,0
604,앨리스의 씨앗,0
605,바닐라의 씨앗,0
606,레아의 씨앗,0
607,리제의 씨앗,0
608,다프네의 씨앗,0
609,아쿠아의 씨앗,0
611,알렉산드라의 씨앗,0
612,소완의 씨앗,0
613,애니의 씨앗,0
614,마리아의 씨앗,0
615,포티아의 씨앗,0
616,리리스의 씨앗,0
617,페로의 씨앗,0
618,하치코의 씨앗,0
619,펜리르의 씨앗,0
621,마리의 씨앗,0
622,이프리트의 씨앗,0
623,레프리콘의 씨앗,0
624,임펫의 씨앗,0
625,브라우니의 씨앗,0
626,실키의 씨앗,0
627,피닉스의 씨앗,0
628,노움의 씨앗,0
629,레드후드의 씨앗,0
631,레오나의 씨앗,0
632,발키리의 씨앗,0
633,님프의 씨앗,0
634,그렘린의 씨앗,0
635,샌드걸의 씨앗,0
636,베라의 씨앗,0
637,알비스의 씨앗,0
641,칸의 씨앗,0
642,카멜의 씨앗,0
643,워울프의 씨앗,0
644,탈론페더의 씨앗,0
651,메이의 씨앗,0
652,앤젤의 씨앗,0
653,다이카의 씨앗,0
654,지니야의 씨앗,0
655,실피드의 씨앗,0
656,밴시의 씨앗,0
660,아스널의 씨앗,0
661,팬서의 씨앗,0
662,칼리스타의 씨앗,0
665,이오의 씨앗,0
666,스프리건의 씨앗,0
667,비스트헌터의 씨앗,0
668,에밀리의 씨앗,0
669,파니의 씨앗,0
670,레이븐의 씨앗,0
671,네오딤의 씨앗,0
673,팬텀의 씨앗,0
674,에키드나의 씨앗,0
675,레이시의 씨앗,0
676,닥터의 씨앗,0
677,에이미의 씨앗,0
678,토모의 씨앗,0
679,시라유리의 씨앗,0
680,홍련의 씨앗,0
681,드라코의 씨앗,0
682,미호의 씨앗,0
683,핀토의 씨앗,0
684,불가사리의 씨앗,0
685,용의 씨앗,0
687,네레이드의 씨앗,0
688,운디네의 씨앗,0
689,세이렌의 씨앗,0
690,테티스의 씨앗,0
691,슬레이프니르의 씨앗,0
692,그리폰의 씨앗,0
693,하르페이아의 씨앗,0
695,블랙하운드의 씨앗,0
696,린트블룸의 씨앗,0
702,코코의 씨앗,0
704,스파토이아의 씨앗,0
706,오드리의 씨앗,0
708,더치걸의 씨앗,0
709,트리아이나의 씨앗,0
711,서펀트의 씨앗,0
712,미스세이프티의 씨앗,0
713,켈베로스의 씨앗,0
716,익스프레스의 씨앗,0
717,포츈의 씨앗,0
718,LRL의 씨앗,0
719,마이티의 씨앗,0
720,티에치엔의 씨앗,0
721,요안나의 씨앗,0
722,스카디의 씨앗,0
723,모모의 씨앗,0
724,아탈란테의 씨앗,0
725,샬럿의 씨앗,0
726,아자젤의 씨앗,0
727,백토의 씨앗,0
729,아르망의 씨앗,0
731,캐럴의 씨앗,0
732,유미의 씨앗,0
733,엘븐의 씨앗,0
734,이그니스의 씨앗,0
735,다크엘븐의 씨앗,0
736,키르케의 씨앗,0
737,바바리아나의 씨앗,0
738,베로니카의 씨앗,0
747,금란의 씨앗,0
749,티아멧의 씨앗,0
751,미나의 씨앗,0
761,엠프리스의 씨앗,0
762,세띠의 씨앗,0
765,아우로라의 씨앗,0
770,써니의 씨앗,0
771,뽀끄루의 씨앗,0
772,럼버제인의 씨앗,0
773,블랙웜의 씨앗,0
774,쿠노이치의 씨앗,0
775,페더의 씨앗,0
776,세레스티아의 씨앗,0

; 전투 관련 장비 ( 칩 800 ~ 819, 전용칩 820 ~ 829 )
800,출력 강화 회로,0,	; 공격력+100
801,회로내구 강화 회로,0,	; HP+600
802,회로 최적화,0,		; 속도+0.225
803,출력 제어 회로,0,	; 공격력+150,치명타-12%
804,출력 안정 회로,0,	; 공격력+84,치명타+12%, 속도-0.1
805,연상 강화 회로,0,	; 적중+70%
806,분석 회로,0,		; 치명타+28%
807,반응 강화 회로,0,	; 회피+22.5%
808,내충격 회로,0,		; 방어력+108
809,경량화 회로,0,		; 적중+40%,회피+18%,행동력+0.12
810,개량형 분석 회로,0,	; 치명타+20%,적중+35%
;811,
812,백신 처리,0,		; 효과저항50%
813,전투 기록 회로,0,	; 경험치
814,출력 강화 회로 베타,0,	; 공격력+120,회피-12%
815,회로내구 강화 회로 베타,0,	; HP+720,공격력-50
820,ATFLIR 강화 회로,0,; (실피드전용) 공격력+80,적중+40%,회피+18%

; 전투 관련 장비 ( OS 830 ~ 849, 전용OS 850 ~ 859, ERAOS 860 ~ 869 )
830,표준형 전투 시스템,0,	; 공격력+8%,방어력+20%,적중+25%,회피+25%
831,정밀형 전투 시스템,0,	; 공격력+17.5%,행동력-8%,적중감소해제
832,전황 분석 시스템,0,	; 정찰시, 공격력+15%,치명타+10%,적중+25%,회피+25%,행동력+5%
833,방어형 전투 시스템,0,	; 방어력+30%,받는피해15%감소
834,동격형 전투 시스템,0,	; 공격력+20%,받는피해+25%,행동력+7.5%
835,대응형 전투 시스템,0,	; 100%확률로 반격(80% 위력)
836,대중장 전투 시스템,0,	; 대중장 피해량+35%
837,대기동 전투 시스템,0,	; 대기동 피해량+35%
838,대경장 전투 시스템,0,	; 대경장 피해량+35%
839,고속 학습 시스템,0,	; 경험치
840,고기동 메뉴버 시스템,0,; 적중+45%,회피+30%,받는피해50%감소(1회)
841,개량형 전투 시스템,0,	; 공격력+12%,받는피해10%감소,회피+30%,행동력+5%
842,강습형 전투 시스템,0,	; 공격력+15%, 사거리-1
850,주시자의 눈 D형 OS,0,; (마리전용) HP+250,받는피해25%감소,효과저항+35%,100%반격
860,상시 발정 시스템,0,	; 상시 발정 상태
861,상시 최면 시스템,0,	; 상시 최면 상태
862,임신 지원 시스템,0,	; 임신 가능(임신 후 태아에게 영양분을 공급)

; 전투 관련 장비 ( 보조장비 870 ~ 899, 이벤트보조장비 900 ~ 919, 전용장비 920 ~ 939, ERA보조장비 940~949 )
870,초정밀 조준기,0,		; 치명타+20%,적중+50%,적중감소해제
871,전투 자극제,0,		; 행동력+12%,300HP로 전투 속행
872,소형 정찰 드론,0,	; 적중+50%,행동력+0.3,정찰기능
873,보조 에너지 팩,0,	; 매 라운드 AP+1.1
874,방어 역장,0,		; 방어막+400
875,에너지 전황기,0,		; 방어막 해제 시, 공격력+20%,행동력+20%
876,리사이클 모듈,0,		; HP+300,적 처치시 AP 0.8
877,대 장갑 장비,0,		; 치명타+15%,방어관통+40%
878,내전 코팅,0,		; 전기저항+70%
879,내한 코팅,0,		; 냉기저항+70%
880,내열 코팅,0,		; 화염저항+70%
881,고출력 제네레이터,0,	; 공격력+75,AP+1
882,개량형 관측 장비,0,	; 적중+45%,치명타+15%,사거리+1
883,정밀형 관측 장비,0,	; 사거리+2, 사거리 감소 해제
884,아쿠아 모듈,0,		; 침수시, 공격력,방어력,적중,회피,행동력 증가
885,출력 제한 해제 장치,0,	; (로봇전용) 공격력+15%,행동력+15%,100짖속고정피해
886,O.D 증폭기,0,		; (바이오로이드전용) 공격력+30%,525 지속 고정 피해
887,보조 외골격,0,		; (경장전용) 회피+15%,행동력+0.1,받는피해10%감소
888,보조 부스터 유닛,0,	; (기동전용) 회피+22.5%,회피감소해제
889,전략 폭격 장비,0,	; (기동전용) 치명타+15%,회피-75%,공격력+15%,방어관통+45%
890,공간 장갑,0,		; (중장전용) HP+720,받는피해70%감소(4회)
891,중화기용 조준기,0,	; (중장전용)(공격기전용) 적중+40%,치명타+15%,피해감소무시80%확률
892,관측 장비,0,		; (공격기전용) 적중+90%, 사거리증가
893,망원 조준장치,0,		; (공격기전용) 공격력+5%,적중+60%,치명타+24%
894,더미 홀로그램,0,		; (지원기전용) 회피+24%, 피해최소화(2회)

900,소완제 수제 도시락,0,	; (바이오로이드전용) 공격력+10%,행동력+10%
901,달의 마력이 담긴 송편,0,	; 무작위 강화(공격력+15%,적중+25%,회피+25%,받는피해15%감소,해로운효과해제
902,뽀끄루 대마왕의 뿔,0,	; (바이오로이드전용) 공격력+15%,적중+25%,치명타+10%,방어관통+25%,스킬사용불가(10%)
903,운명의 수정구,0,		; 적중+15%,회피+15%,정찰기능
904,니트로 EX 3000,0,	; 냉기저항+50%,회피+30%,행동력+0.3,적중-100%
905,냉각 팩,0,			; 화염저항+50%,공격시 AP+1
906,선 크림,0,			; 
907,그랑크뤼 초콜릿,0,	; 공격력+100,회피+15%,전투시작시AP+2
908,미니 하치코,0,		; HP+450,방어력+60,600HP로 전투속행
909,미니 페로,0,		; 회피+15%,적중+30%
910,미니 블랙 리리스,0,	; 공격력+90,적중+30%,받는피해10%감소

920,특수 코팅 라이플탄,0,	; (콘스탄챠전용) 공격력+60,치명타+15%,방어관통+30%
921,확장 AMRAAM 포드,0,; (그리폰전용) 공격력+100,적중+40%,치명타+10%,대기동피해량+15%,방어관통+15%
922,용살자의 징표,0,		; (LRL전용)
923,SK-14 P.C.C,0,	; (미호전용)
924,초합금 플레이트 아머,0,; (요안나전용)
925,MG80용 개조키트,0,	; (님프전용)
926,수상한 보조제,0,		; (스카디전용)
927,40mm DU탄,0,		; (네레이드전용)
928,테러진압용 외장아머,0,	; (불가사리전용)
929,촙 메이커 II,0,	; (켈베로스전용)
930,전투 관측 프레임,0,	; (레오나전용)
931,ASN-6G,0,		; (운디네전용)
932,해충 파쇄기,0,		; (리제전용)
933,우주용 확장 부스터,0,	; (스팅어전용)
934,개량형 복합 장갑,0,	; (기간테스전용)

940,아기집,0,			; 임신 가능(수정 후 착상할 공간)