﻿;※번호나 명칭을 변경할 때는 _Rename.csv 도 변경하는 것
;Palam.csv
;아래는 PALAMNAME에 따라 생상되는 변수
;UP,DOWN: 1차원 배열, @SHOW_USERCOM 종료 시 UPCHECK 시 초기화된다. (쓰지말자?)
;CUP,CDOWN: 캐릭터 1차원 배열, @SHOW_USERCOM 종료 시 UPCHECK 시 초기화된다. 파라미터 상승치
;PALAMLV: 1차원 배열, _Replace.csv의 "PALAMLVの初期値"의 초기치로 설정된다.
;JUEL: 캐릭터 1차원 배열,
;GOTJUEL: 캐릭터 1차원 배열,
;PALAM: 캐릭터 1차원 배열, BEGIN TRAIN 시 초기화된다.

;쾌감계는 0～9에 고정
0,쾌C
1,쾌V
2,쾌A
3,쾌B
4,쾌M
5,쾌U
6,사정
7,분유
8,분수
;9,
10,윤활
11,습득
12,순종
13,욕정
14,굴복
15,치정
16,고통
17,공포
;18,
;19,
20,반감
21,불쾌
22,억울

50,취기
51,약물

;기분과 관계되는 파라미터는 10～19에 고정
30,로주
31,로외
32,액주
33,액외
34,포주
35,포외
36,붕괴