﻿;Stain.csv
;STAIN: 캐릭터 1차원 배열, 더러운 정도, _replace.csv "汚れの初期値"로 초기화된다.
;BEGIN Train 시, 2에 2, 3에 1, 4에 8이 설정된다.

;더러움의 비트 번호
; 0bit	V
; 1bit	P
; 2bit	정액
; 3bit	A
; 4bit	모유
; 5bit	오줌
; 6bit	촉수
; 7bit	땀
; 8bit	젖음
;10bit	파과혈
;20bit	V치구
;21bit	P치구

0,M
1,손
2,P
3,V
4,A
5,B

;10번 이하는 옷의 더러움
10,팬티
11,겉옷
12,보디슈츠바텀
13,보디슈츠탑
14,옷
17,삭스
18,장갑
19,신발