﻿;Tequip.csv
;TEQUIP: 캐럭티 1차원 배열, BEGIN TRAN 시 초기화된다.

;0～9 배타적으로 처리하는 부위별 장착
; 0 ~ 100 아이템 장착, 101 ~ Train 장착
0,C장착,;10=클리캡
1,V장착,;1=피삽입, 2=쌍두바이브, 10=바이브, 20=안면승마(위/V)
2,A장착,;1=피삽입, 10=A바이브, 20=안면승마(위/A), 21=안면승마(위/엉덩이)
3,B장착,;1=피삽입, 2=유두빨기 10=유두캡
4,M장착,;1=피삽입, 10=볼개그, 20=쿤닐
5,P장착,;1=V삽입, 2=A삽입, 3=U삽입, 4=파이즈리, 5=유두퍽, 6=페라, 7=아라마치오, 10=오나홀,
6,U장착,;1=피삽입, 10=카테터, 11=U바이브
7,손장착,;1=자위, 2=가슴주무르기, 3=수음 
8,다리장착,;
9,자궁장착
10,구속기구,;


;1,안면기승
;3,자위
;5,엉덩이애무
;6,키스
;7,보지애무

;0bit가늘다, 1bit보통, 2bit크다, 3bit극태, 4bit팔길이, 5bit말잦이, 
;10bit쌍두타입, 11bit펄타입
11,바이브
12,카테터
13,애널바이브
14,클리캡
15,니플캡
16,착유기
17,오나홀
18,샤워
19,로터삽입

;체위는 삽입당하는 캐릭터의 플래그
20,체위,		;～9bit	체위,10bit V성교,11bit A성교,12bit 성교

;삽입하는 측의 플래그 관리
21,V삽입
22,A삽입
23,요도삽입

24,칭찬하기
25,칭찬하기커맨드からの派生플래그
26,특수행동,	;0bit와일드스윙　1bit양손피스트　2bit에너지드레인　3bit레벨드레인
;27,
28,배란유발제
29,러브트랩
30,넘어뜨리기
31,손대중
32,Ｗ넘어뜨리기
33,달콤한말
34,플라트
35,관내노출플레이,;함내노출
36,역조교
37,자위한다

40,딥스로트

43,아이마스크
44,구속
45,재갈,		;1:볼개그,2:링
46,관장,
; 0bit 공기관장
; 1bit 관장 (소량)
; 2bit 관장 (규정량)
; 3bit 관장 (대량)
; 4bit 관장 (초대량)
; 9bit 애널플러그
;10bit 정액관장플래그
;11bit 온천관장플래그
;47,
48,확장벌룬,	;1:질,2:항문
49,요도확장기
50,로션,		;1bit:로션 마사지 선택 플래그,2bit:로션 마사지 실행끝 플래그
51,미약
52,이뇨제
53,비디오카메라
54,야외플레이,	;0bit 마을, 1bit 삼림, 2bit 화원, 3bit 강가
55,여왕님플레이,	;깂의 증가에 의해 플레이가 증가한다.
56,근육이완제,	;0bit 항문, 1bit 요도, 2bit 보지, 3bit 자궁구
57,수치플레이
58,목욕탕플레이
59,새댁플레이
60,３P
61,목욕후

64,드러그,		;&1 진정제
65,연주중
;66,인센스
67,입욕제
69,식스나인

84,역A인서트
85,역인서트
89,운명검열,	;0bit 애무, 1bit 보지, 2bit가슴, 3bit키스, 4bit애널, 5bit영창
90,촉수

95,풋잡

;97,暫定的に, 요바이이벤트の人数管理で一時使用

98,촉수구욕

; 101~200 전투 버프 효과(스킬 인덱스)
