;------------------------------------------------------------
;캐릭터 이미지 등
;------------------------------------------------------------
; 아이콘
0_당신_스킨0_아이콘,Character/Icon/000_당신_스킨0_아이콘.png
2_라비아타_스킨0_아이콘,Character/Icon/002_라비아타_스킨0_아이콘.png
2_라비아타_스킨1_아이콘,Character/Icon/002_라비아타_스킨1_아이콘.png
2_라비아타_스킨2_아이콘,Character/Icon/002_라비아타_스킨2_아이콘.png
3_콘스탄챠_스킨0_아이콘,Character/Icon/003_콘스탄챠_스킨0_아이콘.png
3_콘스탄챠_스킨1_아이콘,Character/Icon/003_콘스탄챠_스킨1_아이콘.png
3_콘스탄챠_스킨2_아이콘,Character/Icon/003_콘스탄챠_스킨2_아이콘.png
3_콘스탄챠_스킨3_아이콘,Character/Icon/003_콘스탄챠_스킨3_아이콘.png
4_앨리스_스킨0_아이콘,Character/Icon/004_앨리스_스킨0_아이콘.png
4_앨리스_스킨1_아이콘,Character/Icon/004_앨리스_스킨1_아이콘.png
5_바닐라_스킨0_아이콘,Character/Icon/005_바닐라_스킨0_아이콘.png
6_레아_스킨0_아이콘,Character/Icon/006_레아_스킨0_아이콘.png
6_레아_스킨1_아이콘,Character/Icon/006_레아_스킨1_아이콘.png
6_레아_스킨2_아이콘,Character/Icon/006_레아_스킨2_아이콘.png
7_리제_스킨0_아이콘,Character/Icon/007_리제_스킨0_아이콘.png
7_리제_스킨1_아이콘,Character/Icon/007_리제_스킨1_아이콘.png
7_리제_스킨2_아이콘,Character/Icon/007_리제_스킨2_아이콘.png
8_다프네_스킨0_아이콘,Character/Icon/008_다프네_스킨0_아이콘.png
8_다프네_스킨1_아이콘,Character/Icon/008_다프네_스킨1_아이콘.png
8_다프네_스킨2_아이콘,Character/Icon/008_다프네_스킨2_아이콘.png
9_아쿠아_스킨0_아이콘,Character/Icon/009_아쿠아_스킨0_아이콘.png
11_알렉산드라_스킨0_아이콘,Character/Icon/011_알렉산드라_스킨0_아이콘.png
11_알렉산드라_스킨1_아이콘,Character/Icon/011_알렉산드라_스킨1_아이콘.png
12_소완_스킨0_아이콘,Character/Icon/012_소완_스킨0_아이콘.png
12_소완_스킨1_아이콘,Character/Icon/012_소완_스킨1_아이콘.png
12_소완_스킨2_아이콘,Character/Icon/012_소완_스킨2_아이콘.png
13_애니_스킨0_아이콘,Character/Icon/013_애니_스킨0_아이콘.png
14_마리아_스킨0_아이콘,Character/Icon/014_마리아_스킨0_아이콘.png
15_포티아_스킨0_아이콘,Character/Icon/015_포티아_스킨0_아이콘.png
15_포티아_스킨1_아이콘,Character/Icon/015_포티아_스킨1_아이콘.png
16_리리스_스킨0_아이콘,Character/Icon/016_리리스_스킨0_아이콘.png
16_리리스_스킨1_아이콘,Character/Icon/016_리리스_스킨1_아이콘.png
16_리리스_스킨2_아이콘,Character/Icon/016_리리스_스킨2_아이콘.png
17_페로_스킨0_아이콘,Character/Icon/017_페로_스킨0_아이콘.png
17_페로_스킨1_아이콘,Character/Icon/017_페로_스킨1_아이콘.png
17_페로_스킨2_아이콘,Character/Icon/017_페로_스킨2_아이콘.png
17_페로_스킨3_아이콘,Character/Icon/017_페로_스킨3_아이콘.png
18_하치코_스킨0_아이콘,Character/Icon/018_하치코_스킨0_아이콘.png
18_하치코_스킨1_아이콘,Character/Icon/018_하치코_스킨1_아이콘.png
18_하치코_스킨2_아이콘,Character/Icon/018_하치코_스킨2_아이콘.png
19_펜리르_스킨0_아이콘,Character/Icon/019_펜리르_스킨0_아이콘.png
19_펜리르_스킨1_아이콘,Character/Icon/019_펜리르_스킨1_아이콘.png
21_마리_스킨0_아이콘,Character/Icon/021_마리_스킨0_아이콘.png
21_마리_스킨1_아이콘,Character/Icon/021_마리_스킨1_아이콘.png
21_마리_스킨2_아이콘,Character/Icon/021_마리_스킨2_아이콘.png
22_이프리트_스킨0_아이콘,Character/Icon/022_이프리트_스킨0_아이콘.png
23_레프리콘_스킨0_아이콘,Character/Icon/023_레프리콘_스킨0_아이콘.png
23_레프리콘_스킨1_아이콘,Character/Icon/023_레프리콘_스킨1_아이콘.png
24_임펫_스킨0_아이콘,Character/Icon/024_임펫_스킨0_아이콘.png
24_임펫_스킨1_아이콘,Character/Icon/024_임펫_스킨1_아이콘.png
25_브라우니_스킨0_아이콘,Character/Icon/025_브라우니_스킨0_아이콘.png
25_브라우니_스킨1_아이콘,Character/Icon/025_브라우니_스킨1_아이콘.png
26_실키_스킨0_아이콘,Character/Icon/026_실키_스킨0_아이콘.png
26_실키_스킨1_아이콘,Character/Icon/026_실키_스킨1_아이콘.png
27_피닉스_스킨0_아이콘,Character/Icon/027_피닉스_스킨0_아이콘.png
27_피닉스_스킨1_아이콘,Character/Icon/027_피닉스_스킨1_아이콘.png
28_노움_스킨0_아이콘,Character/Icon/028_노움_스킨0_아이콘.png
28_노움_스킨1_아이콘,Character/Icon/028_노움_스킨1_아이콘.png
29_레드후드_스킨0_아이콘,Character/Icon/029_레드후드_스킨0_아이콘.png
31_레오나_스킨0_아이콘,Character/Icon/031_레오나_스킨0_아이콘.png
31_레오나_스킨1_아이콘,Character/Icon/031_레오나_스킨1_아이콘.png
31_레오나_스킨2_아이콘,Character/Icon/031_레오나_스킨2_아이콘.png
32_발키리_스킨0_아이콘,Character/Icon/032_발키리_스킨0_아이콘.png
32_발키리_스킨1_아이콘,Character/Icon/032_발키리_스킨1_아이콘.png
32_발키리_스킨2_아이콘,Character/Icon/032_발키리_스킨2_아이콘.png
32_발키리_스킨3_아이콘,Character/Icon/032_발키리_스킨3_아이콘.png
33_님프_스킨0_아이콘,Character/Icon/033_님프_스킨0_아이콘.png
33_님프_스킨1_아이콘,Character/Icon/033_님프_스킨1_아이콘.png
34_그렘린_스킨0_아이콘,Character/Icon/034_그렘린_스킨0_아이콘.png
34_그렘린_스킨1_아이콘,Character/Icon/034_그렘린_스킨1_아이콘.png
35_샌드걸_스킨0_아이콘,Character/Icon/035_샌드걸_스킨0_아이콘.png
36_베라_스킨0_아이콘,Character/Icon/036_베라_스킨0_아이콘.png
37_알비스_스킨0_아이콘,Character/Icon/037_알비스_스킨0_아이콘.png
37_알비스_스킨1_아이콘,Character/Icon/037_알비스_스킨1_아이콘.png
41_칸_스킨0_아이콘,Character/Icon/041_칸_스킨0_아이콘.png
41_칸_스킨1_아이콘,Character/Icon/041_칸_스킨1_아이콘.png
41_칸_스킨2_아이콘,Character/Icon/041_칸_스킨2_아이콘.png
42_카멜_스킨0_아이콘,Character/Icon/042_카멜_스킨0_아이콘.png
42_카멜_스킨1_아이콘,Character/Icon/042_카멜_스킨1_아이콘.png
43_워울프_스킨0_아이콘,Character/Icon/043_워울프_스킨0_아이콘.png
43_워울프_스킨1_아이콘,Character/Icon/043_워울프_스킨1_아이콘.png
44_탈론페더_스킨0_아이콘,Character/Icon/044_탈론페더_스킨0_아이콘.png
44_탈론페더_스킨1_아이콘,Character/Icon/044_탈론페더_스킨1_아이콘.png
51_메이_스킨0_아이콘,Character/Icon/051_메이_스킨0_아이콘.png
51_메이_스킨1_아이콘,Character/Icon/051_메이_스킨1_아이콘.png
51_메이_스킨2_아이콘,Character/Icon/051_메이_스킨2_아이콘.png
51_메이_스킨3_아이콘,Character/Icon/051_메이_스킨3_아이콘.png
52_앤젤_스킨0_아이콘,Character/Icon/052_앤젤_스킨0_아이콘.png
52_앤젤_스킨1_아이콘,Character/Icon/052_앤젤_스킨1_아이콘.png
53_다이카_스킨0_아이콘,Character/Icon/053_다이카_스킨0_아이콘.png
53_다이카_스킨1_아이콘,Character/Icon/053_다이카_스킨1_아이콘.png
54_지니야_스킨0_아이콘,Character/Icon/054_지니야_스킨0_아이콘.png
55_실피드_스킨0_아이콘,Character/Icon/055_실피드_스킨0_아이콘.png
56_밴시_스킨0_아이콘,Character/Icon/056_밴시_스킨0_아이콘.png
56_밴시_스킨1_아이콘,Character/Icon/056_밴시_스킨1_아이콘.png
60_아스널_스킨0_아이콘,Character/Icon/060_아스널_스킨0_아이콘.png
60_아스널_스킨1_아이콘,Character/Icon/060_아스널_스킨1_아이콘.png
61_팬서_스킨0_아이콘,Character/Icon/061_팬서_스킨0_아이콘.png
61_팬서_스킨1_아이콘,Character/Icon/061_팬서_스킨1_아이콘.png
62_칼리스타_스킨0_아이콘,Character/Icon/062_칼리스타_스킨0_아이콘.png
62_칼리스타_스킨1_아이콘,Character/Icon/062_칼리스타_스킨1_아이콘.png
65_이오_스킨0_아이콘,Character/Icon/065_이오_스킨0_아이콘.png
66_스프리건_스킨0_아이콘,Character/Icon/066_스프리건_스킨0_아이콘.png
66_스프리건_스킨1_아이콘,Character/Icon/066_스프리건_스킨1_아이콘.png
67_비스트헌터_스킨0_아이콘,Character/Icon/067_비스트헌터_스킨0_아이콘.png
67_비스트헌터_스킨1_아이콘,Character/Icon/067_비스트헌터_스킨1_아이콘.png
68_에밀리_스킨0_아이콘,Character/Icon/068_에밀리_스킨0_아이콘.png
68_에밀리_스킨1_아이콘,Character/Icon/068_에밀리_스킨1_아이콘.png
69_파니_스킨0_아이콘,Character/Icon/069_파니_스킨0_아이콘.png
70_레이븐_스킨0_아이콘,Character/Icon/070_레이븐_스킨0_아이콘.png
71_네오딤_스킨0_아이콘,Character/Icon/071_네오딤_스킨0_아이콘.png
71_네오딤_스킨1_아이콘,Character/Icon/071_네오딤_스킨1_아이콘.png
71_네오딤_스킨2_아이콘,Character/Icon/071_네오딤_스킨2_아이콘.png
73_팬텀_스킨0_아이콘,Character/Icon/073_팬텀_스킨0_아이콘.png
73_팬텀_스킨1_아이콘,Character/Icon/073_팬텀_스킨1_아이콘.png
74_에키드나_스킨0_아이콘,Character/Icon/074_에키드나_스킨0_아이콘.png
74_에키드나_스킨1_아이콘,Character/Icon/074_에키드나_스킨1_아이콘.png
74_에키드나_스킨2_아이콘,Character/Icon/074_에키드나_스킨2_아이콘.png
75_레이시_스킨0_아이콘,Character/Icon/075_레이시_스킨0_아이콘.png
76_닥터_스킨0_아이콘,Character/Icon/076_닥터_스킨0_아이콘.png
76_닥터_스킨1_아이콘,Character/Icon/076_닥터_스킨1_아이콘.png
77_에이미_스킨0_아이콘,Character/Icon/077_에이미_스킨0_아이콘.png
77_에이미_스킨1_아이콘,Character/Icon/077_에이미_스킨1_아이콘.png
78_토모_스킨0_아이콘,Character/Icon/078_토모_스킨0_아이콘.png
78_토모_스킨1_아이콘,Character/Icon/078_토모_스킨1_아이콘.png
79_시라유리_스킨0_아이콘,Character/Icon/079_시라유리_스킨0_아이콘.png
80_홍련_스킨0_아이콘,Character/Icon/080_홍련_스킨0_아이콘.jpg
80_홍련_스킨1_아이콘,Character/Icon/080_홍련_스킨1_아이콘.png
81_드라코_스킨0_아이콘,Character/Icon/081_드라코_스킨0_아이콘.png
81_드라코_스킨1_아이콘,Character/Icon/081_드라코_스킨1_아이콘.png
82_미호_스킨0_아이콘,Character/Icon/082_미호_스킨0_아이콘.png
82_미호_스킨1_아이콘,Character/Icon/082_미호_스킨1_아이콘.png
82_미호_스킨2_아이콘,Character/Icon/082_미호_스킨2_아이콘.png
83_핀토_스킨0_아이콘,Character/Icon/083_핀토_스킨0_아이콘.png
83_핀토_스킨1_아이콘,Character/Icon/083_핀토_스킨1_아이콘.png
83_핀토_스킨2_아이콘,Character/Icon/083_핀토_스킨2_아이콘.png
84_불가사리_스킨0_아이콘,Character/Icon/084_불가사리_스킨0_아이콘.png
84_불가사리_스킨1_아이콘,Character/Icon/084_불가사리_스킨1_아이콘.png
85_용_스킨0_아이콘,Character/Icon/085_용_스킨0_아이콘.png
87_네레이드_스킨0_아이콘,Character/Icon/087_네레이드_스킨0_아이콘.png
87_네레이드_스킨1_아이콘,Character/Icon/087_네레이드_스킨1_아이콘.png
88_운디네_스킨0_아이콘,Character/Icon/088_운디네_스킨0_아이콘.png
88_운디네_스킨1_아이콘,Character/Icon/088_운디네_스킨1_아이콘.png
89_세이렌_스킨0_아이콘,Character/Icon/089_세이렌_스킨0_아이콘.png
89_세이렌_스킨1_아이콘,Character/Icon/089_세이렌_스킨1_아이콘.png
90_테티스_스킨0_아이콘,Character/Icon/090_테티스_스킨0_아이콘.png
91_슬레이프니르_스킨0_아이콘,Character/Icon/091_슬레이프니르_스킨0_아이콘.png
91_슬레이프니르_스킨1_아이콘,Character/Icon/091_슬레이프니르_스킨1_아이콘.png
91_슬레이프니르_스킨2_아이콘,Character/Icon/091_슬레이프니르_스킨2_아이콘.png
92_그리폰_스킨0_아이콘,Character/Icon/092_그리폰_스킨0_아이콘.png
92_그리폰_스킨1_아이콘,Character/Icon/092_그리폰_스킨1_아이콘.png
92_그리폰_스킨2_아이콘,Character/Icon/092_그리폰_스킨2_아이콘.png
93_하르페이아_스킨0_아이콘,Character/Icon/093_하르페이아_스킨0_아이콘.png
93_하르페이아_스킨1_아이콘,Character/Icon/093_하르페이아_스킨1_아이콘.png
95_블랙하운드_스킨0_아이콘,Character/Icon/095_블랙하운드_스킨0_아이콘.png
95_블랙하운드_스킨1_아이콘,Character/Icon/095_블랙하운드_스킨1_아이콘.png
96_린트블룸_스킨0_아이콘,Character/Icon/096_린트블룸_스킨0_아이콘.png
96_린트블룸_스킨1_아이콘,Character/Icon/096_린트블룸_스킨1_아이콘.png
102_코코_스킨0_아이콘,Character/Icon/102_코코_스킨0_아이콘.png
104_스파토이아_스킨0_아이콘,Character/Icon/104_스파토이아_스킨0_아이콘.png
106_오드리_스킨0_아이콘,Character/Icon/106_오드리_스킨0_아이콘.png
106_오드리_스킨1_아이콘,Character/Icon/106_오드리_스킨1_아이콘.png
108_더치걸_스킨0_아이콘,Character/Icon/108_더치걸_스킨0_아이콘.png
108_더치걸_스킨1_아이콘,Character/Icon/108_더치걸_스킨1_아이콘.png
109_트리아이나_스킨0_아이콘,Character/Icon/109_트리아이나_스킨0_아이콘.png
109_트리아이나_스킨1_아이콘,Character/Icon/109_트리아이나_스킨1_아이콘.png
111_서펀트_스킨0_아이콘,Character/Icon/111_서펀트_스킨0_아이콘.png
111_서펀트_스킨1_아이콘,Character/Icon/111_서펀트_스킨1_아이콘.png
112_미스세이프티_스킨0_아이콘,Character/Icon/112_미스세이프티_스킨0_아이콘.png
113_켈베로스_스킨0_아이콘,Character/Icon/113_켈베로스_스킨0_아이콘.png
113_켈베로스_스킨1_아이콘,Character/Icon/113_켈베로스_스킨1_아이콘.png
113_켈베로스_스킨2_아이콘,Character/Icon/113_켈베로스_스킨2_아이콘.png
113_켈베로스_스킨3_아이콘,Character/Icon/113_켈베로스_스킨3_아이콘.png
116_익스프레스_스킨0_아이콘,Character/Icon/116_익스프레스_스킨0_아이콘.png
116_익스프레스_스킨1_아이콘,Character/Icon/116_익스프레스_스킨1_아이콘.png
117_포츈_스킨0_아이콘,Character/Icon/117_포츈_스킨0_아이콘.png
117_포츈_스킨1_아이콘,Character/Icon/117_포츈_스킨1_아이콘.png
118_LRL_스킨0_아이콘,Character/Icon/118_LRL_스킨0_아이콘.png
118_LRL_스킨1_아이콘,Character/Icon/118_LRL_스킨1_아이콘.png
119_마이티_스킨0_아이콘,Character/Icon/119_마이티_스킨0_아이콘.png
120_티에치엔_스킨0_아이콘,Character/Icon/120_티에치엔_스킨0_아이콘.png
120_티에치엔_스킨1_아이콘,Character/Icon/120_티에치엔_스킨1_아이콘.png
121_요안나_스킨0_아이콘,Character/Icon/121_요안나_스킨0_아이콘.png
122_스카디_스킨0_아이콘,Character/Icon/122_스카디_스킨0_아이콘.png
122_스카디_스킨1_아이콘,Character/Icon/122_스카디_스킨1_아이콘.png
123_모모_스킨0_아이콘,Character/Icon/123_모모_스킨0_아이콘.png
123_모모_스킨1_아이콘,Character/Icon/123_모모_스킨1_아이콘.png
124_아탈란테_스킨0_아이콘,Character/Icon/124_아탈란테_스킨0_아이콘.png
124_아탈란테_스킨1_아이콘,Character/Icon/124_아탈란테_스킨1_아이콘.png
125_샬럿_스킨0_아이콘,Character/Icon/125_샬럿_스킨0_아이콘.png
125_샬럿_스킨1_아이콘,Character/Icon/125_샬럿_스킨1_아이콘.png
125_샬럿_스킨2_아이콘,Character/Icon/125_샬럿_스킨2_아이콘.png
126_아자젤_스킨0_아이콘,Character/Icon/126_아자젤_스킨0_아이콘.png
126_아자젤_스킨1_아이콘,Character/Icon/126_아자젤_스킨1_아이콘.png
127_백토_스킨0_아이콘,Character/Icon/127_백토_스킨0_아이콘.png
127_백토_스킨1_아이콘,Character/Icon/127_백토_스킨1_아이콘.png
129_아르망_스킨0_아이콘,Character/Icon/129_아르망_스킨0_아이콘.png
129_아르망_스킨1_아이콘,Character/Icon/129_아르망_스킨1_아이콘.png
131_캐럴_스킨0_아이콘,Character/Icon/131_캐럴_스킨0_아이콘.png
131_캐럴_스킨1_아이콘,Character/Icon/131_캐럴_스킨1_아이콘.png
132_유미_스킨0_아이콘,Character/Icon/132_유미_스킨0_아이콘.png
132_유미_스킨1_아이콘,Character/Icon/132_유미_스킨1_아이콘.png
133_엘븐_스킨0_아이콘,Character/Icon/133_엘븐_스킨0_아이콘.png
133_엘븐_스킨1_아이콘,Character/Icon/133_엘븐_스킨1_아이콘.png
134_이그니스_스킨0_아이콘,Character/Icon/134_이그니스_스킨0_아이콘.png
134_이그니스_스킨1_아이콘,Character/Icon/134_이그니스_스킨1_아이콘.png
135_다크엘븐_스킨0_아이콘,Character/Icon/135_다크엘븐_스킨0_아이콘.png
135_다크엘븐_스킨1_아이콘,Character/Icon/135_다크엘븐_스킨1_아이콘.png
136_키르케_스킨0_아이콘,Character/Icon/136_키르케_스킨0_아이콘.png
137_바바리아나_스킨0_아이콘,Character/Icon/137_바바리아나_스킨0_아이콘.png
137_바바리아나_스킨1_아이콘,Character/Icon/137_바바리아나_스킨1_아이콘.png
138_베로니카_스킨0_아이콘,Character/Icon/138_베로니카_스킨0_아이콘.png
138_베로니카_스킨1_아이콘,Character/Icon/138_베로니카_스킨1_아이콘.png
147_금란_스킨0_아이콘,Character/Icon/147_금란_스킨0_아이콘.png
147_금란_스킨1_아이콘,Character/Icon/147_금란_스킨1_아이콘.png
149_티아멧_스킨0_아이콘,Character/Icon/149_티아멧_스킨0_아이콘.png
149_티아멧_스킨1_아이콘,Character/Icon/149_티아멧_스킨1_아이콘.png
151_미나_스킨0_아이콘,Character/Icon/151_미나_스킨0_아이콘.png
161_엠프리스_스킨0_아이콘,Character/Icon/161_엠프리스_스킨0_아이콘.png
162_세띠_스킨0_아이콘,Character/Icon/162_세띠_스킨0_아이콘.png
162_세띠_스킨1_아이콘,Character/Icon/162_세띠_스킨1_아이콘.png
165_아우로라_스킨0_아이콘,Character/Icon/165_아우로라_스킨0_아이콘.png
170_써니_스킨0_아이콘,Character/Icon/170_써니_스킨0_아이콘.png
170_써니_스킨1_아이콘,Character/Icon/170_써니_스킨1_아이콘.png
171_뽀끄루_스킨0_아이콘,Character/Icon/171_뽀끄루_스킨0_아이콘.png
171_뽀끄루_스킨1_아이콘,Character/Icon/171_뽀끄루_스킨1_아이콘.png
171_뽀끄루_스킨2_아이콘,Character/Icon/171_뽀끄루_스킨2_아이콘.png
172_럼버제인_스킨0_아이콘,Character/Icon/172_럼버제인_스킨0_아이콘.png
172_럼버제인_스킨1_아이콘,Character/Icon/172_럼버제인_스킨1_아이콘.png
173_블랙웜_스킨0_아이콘,Character/Icon/173_블랙웜_스킨0_아이콘.png
173_블랙웜_스킨1_아이콘,Character/Icon/173_블랙웜_스킨1_아이콘.png
174_쿠노이치_스킨0_아이콘,Character/Icon/174_쿠노이치_스킨0_아이콘.png
175_페더_스킨0_아이콘,Character/Icon/175_페더_스킨0_아이콘.png
176_세레스티아_스킨0_아이콘,Character/Icon/176_세레스티아_스킨0_아이콘.png


; 모델 (기본사이즈: 900:1600 Margin: 위 100, 아래 150, 좌 150, 우 150)
; 최종사이즈: 600:1350
;0_당신_스킨0_모델,Character/Skin/000_당신_스킨0.jpg,25,50,400,700
2_라비아타_스킨0_모델,Character/Skin/002_라비아타_스킨0.jpg,25,50,400,700
2_라비아타_스킨1_모델,Character/Skin/002_라비아타_스킨1.jpg,25,50,400,700
2_라비아타_스킨2_모델,Character/Skin/002_라비아타_스킨2.jpg,25,50,400,700
3_콘스탄챠_스킨0_모델,Character/Skin/003_콘스탄챠_스킨0.jpg,25,50,400,700
3_콘스탄챠_스킨1_모델,Character/Skin/003_콘스탄챠_스킨1.jpg,25,50,400,700
3_콘스탄챠_스킨2_모델,Character/Skin/003_콘스탄챠_스킨2.jpg,25,50,400,700
3_콘스탄챠_스킨3_모델,Character/Skin/003_콘스탄챠_스킨3.jpg,25,50,400,700
4_앨리스_스킨0_모델,Character/Skin/004_앨리스_스킨0.jpg,25,50,400,700
4_앨리스_스킨1_모델,Character/Skin/004_앨리스_스킨1.jpg,25,50,400,700
5_바닐라_스킨0_모델,Character/Skin/005_바닐라_스킨0.jpg,25,50,400,700
6_레아_스킨0_모델,Character/Skin/006_레아_스킨0.jpg,25,50,400,700
6_레아_스킨1_모델,Character/Skin/006_레아_스킨1.jpg,25,50,400,700
6_레아_스킨2_모델,Character/Skin/006_레아_스킨2.jpg,25,50,400,700
7_리제_스킨0_모델,Character/Skin/007_리제_스킨0.jpg,25,50,400,700
7_리제_스킨1_모델,Character/Skin/007_리제_스킨1.jpg,25,50,400,700
7_리제_스킨2_모델,Character/Skin/007_리제_스킨2.jpg,25,50,400,700
8_다프네_스킨0_모델,Character/Skin/008_다프네_스킨0.jpg,25,50,400,700
8_다프네_스킨1_모델,Character/Skin/008_다프네_스킨1.jpg,25,50,400,700
8_다프네_스킨2_모델,Character/Skin/008_다프네_스킨2.jpg,25,50,400,700
9_아쿠아_스킨0_모델,Character/Skin/009_아쿠아_스킨0.jpg,25,50,400,700
11_알렉산드라_스킨0_모델,Character/Skin/011_알렉산드라_스킨0.jpg,25,50,400,700
11_알렉산드라_스킨1_모델,Character/Skin/011_알렉산드라_스킨1.jpg,25,50,400,700
12_소완_스킨0_모델,Character/Skin/012_소완_스킨0.jpg,25,50,400,700
12_소완_스킨1_모델,Character/Skin/012_소완_스킨1.jpg,25,50,400,700
12_소완_스킨2_모델,Character/Skin/012_소완_스킨2.jpg,25,50,400,700
13_애니_스킨0_모델,Character/Skin/013_애니_스킨0.jpg,25,50,400,700
14_마리아_스킨0_모델,Character/Skin/014_마리아_스킨0.jpg,25,50,400,700
15_포티아_스킨0_모델,Character/Skin/015_포티아_스킨0.jpg,25,50,400,700
15_포티아_스킨1_모델,Character/Skin/015_포티아_스킨1.jpg,25,50,400,700
16_리리스_스킨0_모델,Character/Skin/016_리리스_스킨0.jpg,25,50,400,700
16_리리스_스킨1_모델,Character/Skin/016_리리스_스킨1.jpg,25,50,400,700
16_리리스_스킨2_모델,Character/Skin/016_리리스_스킨2.jpg,25,50,400,700
17_페로_스킨0_모델,Character/Skin/017_페로_스킨0.jpg,25,50,400,700
17_페로_스킨1_모델,Character/Skin/017_페로_스킨1.jpg,25,50,400,700
17_페로_스킨2_모델,Character/Skin/017_페로_스킨2.jpg,25,50,400,700
17_페로_스킨3_모델,Character/Skin/017_페로_스킨3.jpg,25,50,400,700
18_하치코_스킨0_모델,Character/Skin/018_하치코_스킨0.jpg,25,50,400,700
18_하치코_스킨1_모델,Character/Skin/018_하치코_스킨1.jpg,25,50,400,700
18_하치코_스킨2_모델,Character/Skin/018_하치코_스킨2.jpg,25,50,400,700
19_펜리르_스킨0_모델,Character/Skin/019_펜리르_스킨0.jpg,25,50,400,700
19_펜리르_스킨1_모델,Character/Skin/019_펜리르_스킨1.jpg,25,50,400,700
21_마리_스킨0_모델,Character/Skin/021_마리_스킨0.jpg,25,50,400,700
21_마리_스킨1_모델,Character/Skin/021_마리_스킨1.jpg,25,50,400,700
21_마리_스킨2_모델,Character/Skin/021_마리_스킨2.jpg,25,50,400,700
22_이프리트_스킨0_모델,Character/Skin/022_이프리트_스킨0.jpg,25,50,400,700
23_레프리콘_스킨0_모델,Character/Skin/023_레프리콘_스킨0.jpg,25,50,400,700
23_레프리콘_스킨1_모델,Character/Skin/023_레프리콘_스킨1.jpg,25,50,400,700
24_임펫_스킨0_모델,Character/Skin/024_임펫_스킨0.jpg,25,50,400,700
24_임펫_스킨1_모델,Character/Skin/024_임펫_스킨1.jpg,25,50,400,700
25_브라우니_스킨0_모델,Character/Skin/025_브라우니_스킨0.jpg,25,50,400,700
25_브라우니_스킨1_모델,Character/Skin/025_브라우니_스킨1.jpg,25,50,400,700
26_실키_스킨0_모델,Character/Skin/026_실키_스킨0.jpg,25,50,400,700
26_실키_스킨1_모델,Character/Skin/026_실키_스킨1.jpg,25,50,400,700
27_피닉스_스킨0_모델,Character/Skin/027_피닉스_스킨0.jpg,25,50,400,700
27_피닉스_스킨1_모델,Character/Skin/027_피닉스_스킨1.jpg,25,50,400,700
28_노움_스킨0_모델,Character/Skin/028_노움_스킨0.jpg,25,50,400,700
28_노움_스킨1_모델,Character/Skin/028_노움_스킨1.jpg,25,50,400,700
29_레드후드_스킨0_모델,Character/Skin/029_레드후드_스킨0.jpg,25,50,400,700
31_레오나_스킨0_모델,Character/Skin/031_레오나_스킨0.jpg,25,50,400,700
31_레오나_스킨1_모델,Character/Skin/031_레오나_스킨1.jpg,25,50,400,700
31_레오나_스킨2_모델,Character/Skin/031_레오나_스킨2.jpg,25,50,400,700
32_발키리_스킨0_모델,Character/Skin/032_발키리_스킨0.jpg,25,50,400,700
32_발키리_스킨1_모델,Character/Skin/032_발키리_스킨1.jpg,25,50,400,700
32_발키리_스킨2_모델,Character/Skin/032_발키리_스킨2.jpg,25,50,400,700
32_발키리_스킨3_모델,Character/Skin/032_발키리_스킨3.jpg,25,50,400,700
33_님프_스킨0_모델,Character/Skin/033_님프_스킨0.jpg,25,50,400,700
33_님프_스킨1_모델,Character/Skin/033_님프_스킨1.jpg,25,50,400,700
34_그렘린_스킨0_모델,Character/Skin/034_그렘린_스킨0.jpg,25,50,400,700
34_그렘린_스킨1_모델,Character/Skin/034_그렘린_스킨1.jpg,25,50,400,700
35_샌드걸_스킨0_모델,Character/Skin/035_샌드걸_스킨0.jpg,25,50,400,700
36_베라_스킨0_모델,Character/Skin/036_베라_스킨0.jpg,25,50,400,700
37_알비스_스킨0_모델,Character/Skin/037_알비스_스킨0.jpg,25,50,400,700
37_알비스_스킨1_모델,Character/Skin/037_알비스_스킨1.jpg,25,50,400,700
41_칸_스킨0_모델,Character/Skin/041_칸_스킨0.jpg,25,50,400,700
41_칸_스킨1_모델,Character/Skin/041_칸_스킨1.jpg,25,50,400,700
41_칸_스킨2_모델,Character/Skin/041_칸_스킨2.jpg,25,50,400,700
42_카멜_스킨0_모델,Character/Skin/042_카멜_스킨0.jpg,25,50,400,700
42_카멜_스킨1_모델,Character/Skin/042_카멜_스킨1.jpg,25,50,400,700
43_워울프_스킨0_모델,Character/Skin/043_워울프_스킨0.jpg,25,50,400,700
43_워울프_스킨1_모델,Character/Skin/043_워울프_스킨1.jpg,25,50,400,700
44_탈론페더_스킨0_모델,Character/Skin/044_탈론페더_스킨0.jpg,25,50,400,700
44_탈론페더_스킨1_모델,Character/Skin/044_탈론페더_스킨1.jpg,25,50,400,700
51_메이_스킨0_모델,Character/Skin/051_메이_스킨0.jpg,25,50,400,700
51_메이_스킨1_모델,Character/Skin/051_메이_스킨1.jpg,25,50,400,700
51_메이_스킨2_모델,Character/Skin/051_메이_스킨2.jpg,25,50,400,700
51_메이_스킨3_모델,Character/Skin/051_메이_스킨3.jpg,25,50,400,700
52_앤젤_스킨0_모델,Character/Skin/052_앤젤_스킨0.jpg,25,50,400,700
52_앤젤_스킨1_모델,Character/Skin/052_앤젤_스킨1.jpg,25,50,400,700
53_다이카_스킨0_모델,Character/Skin/053_다이카_스킨0.jpg,25,50,400,700
53_다이카_스킨1_모델,Character/Skin/053_다이카_스킨1.jpg,25,50,400,700
54_지니야_스킨0_모델,Character/Skin/054_지니야_스킨0.jpg,25,50,400,700
55_실피드_스킨0_모델,Character/Skin/055_실피드_스킨0.jpg,25,50,400,700
56_밴시_스킨0_모델,Character/Skin/056_밴시_스킨0.jpg,25,50,400,700
56_밴시_스킨1_모델,Character/Skin/056_밴시_스킨1.jpg,25,50,400,700
60_아스널_스킨0_모델,Character/Skin/060_아스널_스킨0.jpg,25,50,400,700
60_아스널_스킨1_모델,Character/Skin/060_아스널_스킨1.jpg,25,50,400,700
61_팬서_스킨0_모델,Character/Skin/061_팬서_스킨0.jpg,25,50,400,700
61_팬서_스킨1_모델,Character/Skin/061_팬서_스킨1.jpg,25,50,400,700
62_칼리스타_스킨0_모델,Character/Skin/062_칼리스타_스킨0.jpg,25,50,400,700
62_칼리스타_스킨1_모델,Character/Skin/062_칼리스타_스킨1.jpg,25,50,400,700
65_이오_스킨0_모델,Character/Skin/065_이오_스킨0.jpg,25,50,400,700
66_스프리건_스킨0_모델,Character/Skin/066_스프리건_스킨0.jpg,25,50,400,700
66_스프리건_스킨1_모델,Character/Skin/066_스프리건_스킨1.jpg,25,50,400,700
67_비스트헌터_스킨0_모델,Character/Skin/067_비스트헌터_스킨0.jpg,25,50,400,700
67_비스트헌터_스킨1_모델,Character/Skin/067_비스트헌터_스킨1.jpg,25,50,400,700
68_에밀리_스킨0_모델,Character/Skin/068_에밀리_스킨0.jpg,25,50,400,700
68_에밀리_스킨1_모델,Character/Skin/068_에밀리_스킨1.jpg,25,50,400,700
69_파니_스킨0_모델,Character/Skin/069_파니_스킨0.jpg,25,50,400,700
70_레이븐_스킨0_모델,Character/Skin/070_레이븐_스킨0.jpg,25,50,400,700
71_네오딤_스킨0_모델,Character/Skin/071_네오딤_스킨0.jpg,25,50,400,700
71_네오딤_스킨1_모델,Character/Skin/071_네오딤_스킨1.jpg,25,50,400,700
71_네오딤_스킨2_모델,Character/Skin/071_네오딤_스킨2.jpg,25,50,400,700
73_팬텀_스킨0_모델,Character/Skin/073_팬텀_스킨0.jpg,25,50,400,700
73_팬텀_스킨1_모델,Character/Skin/073_팬텀_스킨1.jpg,25,50,400,700
74_에키드나_스킨0_모델,Character/Skin/074_에키드나_스킨0.jpg,25,50,400,700
74_에키드나_스킨1_모델,Character/Skin/074_에키드나_스킨1.jpg,25,50,400,700
74_에키드나_스킨2_모델,Character/Skin/074_에키드나_스킨2.jpg,25,50,400,700
75_레이시_스킨0_모델,Character/Skin/075_레이시_스킨0.jpg,25,50,400,700
76_닥터_스킨0_모델,Character/Skin/076_닥터_스킨0.jpg,25,50,400,700
76_닥터_스킨1_모델,Character/Skin/076_닥터_스킨1.jpg,25,50,400,700
77_에이미_스킨0_모델,Character/Skin/077_에이미_스킨0.jpg,25,50,400,700
77_에이미_스킨1_모델,Character/Skin/077_에이미_스킨1.jpg,25,50,400,700
78_토모_스킨0_모델,Character/Skin/078_토모_스킨0.jpg,25,50,400,700
78_토모_스킨1_모델,Character/Skin/078_토모_스킨1.jpg,25,50,400,700
79_시라유리_스킨0_모델,Character/Skin/079_시라유리_스킨0.jpg,25,50,400,700
80_홍련_스킨0_모델,Character/Skin/080_홍련_스킨0.jpg,25,50,400,700
80_홍련_스킨1_모델,Character/Skin/080_홍련_스킨1.jpg,25,50,400,700
81_드라코_스킨0_모델,Character/Skin/081_드라코_스킨0.jpg,25,50,400,700
81_드라코_스킨1_모델,Character/Skin/081_드라코_스킨1.jpg,25,50,400,700
82_미호_스킨0_모델,Character/Skin/082_미호_스킨0.jpg,25,50,400,700
82_미호_스킨1_모델,Character/Skin/082_미호_스킨1.jpg,25,50,400,700
82_미호_스킨2_모델,Character/Skin/082_미호_스킨2.jpg,25,50,400,700
83_핀토_스킨0_모델,Character/Skin/083_핀토_스킨0.jpg,25,50,400,700
83_핀토_스킨1_모델,Character/Skin/083_핀토_스킨1.jpg,25,50,400,700
83_핀토_스킨2_모델,Character/Skin/083_핀토_스킨2.jpg,25,50,400,700
84_불가사리_스킨0_모델,Character/Skin/084_불가사리_스킨0.jpg,25,50,400,700
84_불가사리_스킨1_모델,Character/Skin/084_불가사리_스킨1.jpg,25,50,400,700
85_용_스킨0_모델,Character/Skin/085_용_스킨0.jpg,25,50,400,700
87_네레이드_스킨0_모델,Character/Skin/087_네레이드_스킨0.jpg,25,50,400,700
87_네레이드_스킨1_모델,Character/Skin/087_네레이드_스킨1.jpg,25,50,400,700
88_운디네_스킨0_모델,Character/Skin/088_운디네_스킨0.jpg,25,50,400,700
88_운디네_스킨1_모델,Character/Skin/088_운디네_스킨1.jpg,25,50,400,700
89_세이렌_스킨0_모델,Character/Skin/089_세이렌_스킨0.jpg,25,50,400,700
89_세이렌_스킨1_모델,Character/Skin/089_세이렌_스킨1.jpg,25,50,400,700
90_테티스_스킨0_모델,Character/Skin/090_테티스_스킨0.jpg,25,50,400,700
91_슬레이프니르_스킨0_모델,Character/Skin/091_슬레이프니르_스킨0.jpg,25,50,400,700
91_슬레이프니르_스킨1_모델,Character/Skin/091_슬레이프니르_스킨1.jpg,25,50,400,700
91_슬레이프니르_스킨2_모델,Character/Skin/091_슬레이프니르_스킨2.jpg,25,50,400,700
92_그리폰_스킨0_모델,Character/Skin/092_그리폰_스킨0.jpg,25,50,400,700
92_그리폰_스킨1_모델,Character/Skin/092_그리폰_스킨1.jpg,25,50,400,700
92_그리폰_스킨2_모델,Character/Skin/092_그리폰_스킨2.jpg,25,50,400,700
93_하르페이아_스킨0_모델,Character/Skin/093_하르페이아_스킨0.jpg,25,50,400,700
93_하르페이아_스킨1_모델,Character/Skin/093_하르페이아_스킨1.jpg,25,50,400,700
95_블랙하운드_스킨0_모델,Character/Skin/095_블랙하운드_스킨0.jpg,25,50,400,700
95_블랙하운드_스킨1_모델,Character/Skin/095_블랙하운드_스킨1.jpg,25,50,400,700
96_린트블룸_스킨0_모델,Character/Skin/096_린트블룸_스킨0.jpg,25,50,400,700
96_린트블룸_스킨1_모델,Character/Skin/096_린트블룸_스킨1.jpg,25,50,400,700
102_코코_스킨0_모델,Character/Skin/102_코코_스킨0.jpg,25,50,400,700
104_스파토이아_스킨0_모델,Character/Skin/104_스파토이아_스킨0.jpg,25,50,400,700
106_오드리_스킨0_모델,Character/Skin/106_오드리_스킨0.jpg,25,50,400,700
106_오드리_스킨1_모델,Character/Skin/106_오드리_스킨1.jpg,25,50,400,700
108_더치걸_스킨0_모델,Character/Skin/108_더치걸_스킨0.jpg,25,50,400,700
108_더치걸_스킨1_모델,Character/Skin/108_더치걸_스킨1.jpg,25,50,400,700
109_트리아이나_스킨0_모델,Character/Skin/109_트리아이나_스킨0.jpg,25,50,400,700
109_트리아이나_스킨1_모델,Character/Skin/109_트리아이나_스킨1.jpg,25,50,400,700
111_서펀트_스킨0_모델,Character/Skin/111_서펀트_스킨0.jpg,25,50,400,700
111_서펀트_스킨1_모델,Character/Skin/111_서펀트_스킨1.jpg,25,50,400,700
112_미스세이프티_스킨0_모델,Character/Skin/112_미스세이프티_스킨0.jpg,25,50,400,700
113_켈베로스_스킨0_모델,Character/Skin/113_켈베로스_스킨0.jpg,25,50,400,700
113_켈베로스_스킨1_모델,Character/Skin/113_켈베로스_스킨1.jpg,25,50,400,700
113_켈베로스_스킨2_모델,Character/Skin/113_켈베로스_스킨2.jpg,25,50,400,700
113_켈베로스_스킨3_모델,Character/Skin/113_켈베로스_스킨3.jpg,25,50,400,700
116_익스프레스_스킨0_모델,Character/Skin/116_익스프레스_스킨0.jpg,25,50,400,700
116_익스프레스_스킨1_모델,Character/Skin/116_익스프레스_스킨1.jpg,25,50,400,700
117_포츈_스킨0_모델,Character/Skin/117_포츈_스킨0.jpg,25,50,400,700
117_포츈_스킨1_모델,Character/Skin/117_포츈_스킨1.jpg,25,50,400,700
118_LRL_스킨0_모델,Character/Skin/118_LRL_스킨0.jpg,25,50,400,700
118_LRL_스킨1_모델,Character/Skin/118_LRL_스킨1.jpg,25,50,400,700
119_마이티_스킨0_모델,Character/Skin/119_마이티_스킨0.jpg,25,50,400,700
120_티에치엔_스킨0_모델,Character/Skin/120_티에치엔_스킨0.jpg,25,50,400,700
120_티에치엔_스킨1_모델,Character/Skin/120_티에치엔_스킨1.jpg,25,50,400,700
121_요안나_스킨0_모델,Character/Skin/121_요안나_스킨0.jpg,25,50,400,700
122_스카디_스킨0_모델,Character/Skin/122_스카디_스킨0.jpg,25,50,400,700
122_스카디_스킨1_모델,Character/Skin/122_스카디_스킨1.jpg,25,50,400,700
123_모모_스킨0_모델,Character/Skin/123_모모_스킨0.jpg,25,50,400,700
123_모모_스킨1_모델,Character/Skin/123_모모_스킨1.jpg,25,50,400,700
124_아탈란테_스킨0_모델,Character/Skin/124_아탈란테_스킨0.jpg,25,50,400,700
124_아탈란테_스킨1_모델,Character/Skin/124_아탈란테_스킨1.jpg,25,50,400,700
125_샬럿_스킨0_모델,Character/Skin/125_샬럿_스킨0.jpg,25,50,400,700
125_샬럿_스킨1_모델,Character/Skin/125_샬럿_스킨1.jpg,25,50,400,700
125_샬럿_스킨2_모델,Character/Skin/125_샬럿_스킨2.jpg,25,50,400,700
126_아자젤_스킨0_모델,Character/Skin/126_아자젤_스킨0.jpg,25,50,400,700
126_아자젤_스킨1_모델,Character/Skin/126_아자젤_스킨1.jpg,25,50,400,700
127_백토_스킨0_모델,Character/Skin/127_백토_스킨0.jpg,25,50,400,700
127_백토_스킨1_모델,Character/Skin/127_백토_스킨1.jpg,25,50,400,700
129_아르망_스킨0_모델,Character/Skin/129_아르망_스킨0.jpg,25,50,400,700
129_아르망_스킨1_모델,Character/Skin/129_아르망_스킨1.jpg,25,50,400,700
131_캐럴_스킨0_모델,Character/Skin/131_캐럴_스킨0.jpg,25,50,400,700
131_캐럴_스킨1_모델,Character/Skin/131_캐럴_스킨1.jpg,25,50,400,700
132_유미_스킨0_모델,Character/Skin/132_유미_스킨0.jpg,25,50,400,700
132_유미_스킨1_모델,Character/Skin/132_유미_스킨1.jpg,25,50,400,700
133_엘븐_스킨0_모델,Character/Skin/133_엘븐_스킨0.jpg,25,50,400,700
133_엘븐_스킨1_모델,Character/Skin/133_엘븐_스킨1.jpg,25,50,400,700
134_이그니스_스킨0_모델,Character/Skin/134_이그니스_스킨0.jpg,25,50,400,700
134_이그니스_스킨1_모델,Character/Skin/134_이그니스_스킨1.jpg,25,50,400,700
135_다크엘븐_스킨0_모델,Character/Skin/135_다크엘븐_스킨0.jpg,25,50,400,700
135_다크엘븐_스킨1_모델,Character/Skin/135_다크엘븐_스킨1.jpg,25,50,400,700
136_키르케_스킨0_모델,Character/Skin/136_키르케_스킨0.jpg,25,50,400,700
137_바바리아나_스킨0_모델,Character/Skin/137_바바리아나_스킨0.jpg,25,50,400,700
137_바바리아나_스킨1_모델,Character/Skin/137_바바리아나_스킨1.jpg,25,50,400,700
138_베로니카_스킨0_모델,Character/Skin/138_베로니카_스킨0.jpg,25,50,400,700
138_베로니카_스킨1_모델,Character/Skin/138_베로니카_스킨1.jpg,25,50,400,700
147_금란_스킨0_모델,Character/Skin/147_금란_스킨0.jpg,25,50,400,700
147_금란_스킨1_모델,Character/Skin/147_금란_스킨1.jpg,25,50,400,700
149_티아멧_스킨0_모델,Character/Skin/149_티아멧_스킨0.jpg,25,50,400,700
149_티아멧_스킨1_모델,Character/Skin/149_티아멧_스킨1.jpg,25,50,400,700
151_미나_스킨0_모델,Character/Skin/151_미나_스킨0.jpg,25,50,400,700
161_엠프리스_스킨0_모델,Character/Skin/161_엠프리스_스킨0.jpg,25,50,400,700
162_세띠_스킨0_모델,Character/Skin/162_세띠_스킨0.jpg,25,50,400,700
162_세띠_스킨1_모델,Character/Skin/162_세띠_스킨1.jpg,25,50,400,700
165_아우로라_스킨0_모델,Character/Skin/165_아우로라_스킨0.jpg,25,50,400,700
170_써니_스킨0_모델,Character/Skin/170_써니_스킨0.jpg,25,50,400,700
170_써니_스킨1_모델,Character/Skin/170_써니_스킨1.jpg,25,50,400,700
171_뽀끄루_스킨0_모델,Character/Skin/171_뽀끄루_스킨0.jpg,25,50,400,700
171_뽀끄루_스킨1_모델,Character/Skin/171_뽀끄루_스킨1.jpg,25,50,400,700
171_뽀끄루_스킨2_모델,Character/Skin/171_뽀끄루_스킨2.jpg,25,50,400,700
172_럼버제인_스킨0_모델,Character/Skin/172_럼버제인_스킨0.jpg,25,50,400,700
172_럼버제인_스킨1_모델,Character/Skin/172_럼버제인_스킨1.jpg,25,50,400,700
173_블랙웜_스킨0_모델,Character/Skin/173_블랙웜_스킨0.jpg,25,50,400,700
173_블랙웜_스킨1_모델,Character/Skin/173_블랙웜_스킨1.jpg,25,50,400,700
174_쿠노이치_스킨0_모델,Character/Skin/174_쿠노이치_스킨0.png,25,50,400,700
175_페더_스킨0_모델,Character/Skin/175_페더_스킨0.jpg,25,50,400,700
176_세레스티아_스킨0_모델,Character/Skin/176_세레스티아_스킨0.jpg,25,50,400,700

; 중파 (기본사이즈: 450:800 Margin: 위 50, 아래 75, 좌 75, 우 75)
; 최종사이즈: 450:700
3_콘스탄챠_스킨0_중파,Character/Skin/003_콘스탄챠_스킨0_중파.jpg,25,50,400,700
4_앨리스_스킨1_중파,Character/Skin/004_앨리스_스킨1_중파.jpg,25,50,400,700
5_바닐라_스킨0_중파,Character/Skin/005_바닐라_스킨0_중파.jpg,25,50,400,700
11_알렉산드라_스킨0_중파,Character/Skin/011_알렉산드라_스킨0_중파.jpg,25,50,400,700
12_소완_스킨1_중파,Character/Skin/012_소완_스킨1_중파.jpg,25,50,400,700
17_페로_스킨0_중파,Character/Skin/017_페로_스킨0_중파.jpg,25,50,400,700
27_피닉스_스킨0_중파,Character/Skin/027_피닉스_스킨0_중파.jpg,25,50,400,700
27_피닉스_스킨1_중파,Character/Skin/027_피닉스_스킨1_중파.jpg,25,50,400,700
28_노움_스킨0_중파,Character/Skin/028_노움_스킨0_중파.jpg,25,50,400,700
28_노움_스킨1_중파,Character/Skin/028_노움_스킨1_중파.jpg,25,50,400,700
31_레오나_스킨1_중파,Character/Skin/031_레오나_스킨1_중파.jpg,25,50,400,700
41_칸_스킨1_중파,Character/Skin/041_칸_스킨1_중파.jpg,25,50,400,700
44_탈론페더_스킨1_중파,Character/Skin/044_탈론페더_스킨1_중파.jpg,25,50,400,700
51_메이_스킨1_중파,Character/Skin/051_메이_스킨1_중파.jpg
51_메이_스킨3_중파,Character/Skin/051_메이_스킨3_중파.jpg
52_앤젤_스킨0_중파,Character/Skin/052_앤젤_스킨0_중파.jpg,25,50,400,700
53_다이카_스킨1_중파,Character/Skin/053_다이카_스킨1_중파.jpg,25,50,400,700
61_팬서_스킨1_중파,Character/Skin/061_팬서_스킨1_중파.jpg,25,50,400,700
68_에밀리_스킨1_중파,Character/Skin/068_에밀리_스킨1_중파.jpg,25,50,400,700
77_에이미_스킨0_중파,Character/Skin/077_에이미_스킨0_중파.jpg,25,50,400,700
80_홍련_스킨0_중파,Character/Skin/080_홍련_스킨0_중파.jpg,25,50,400,700
80_홍련_스킨1_중파,Character/Skin/080_홍련_스킨1_중파.jpg,25,50,400,700
84_불가사리_스킨1_중파,Character/Skin/084_불가사리_스킨1_중파.jpg,25,50,400,700
92_그리폰_스킨0_중파,Character/Skin/092_그리폰_스킨0_중파.jpg,25,50,400,700
92_그리폰_스킨2_중파,Character/Skin/092_그리폰_스킨2_중파.jpg,25,50,400,700
109_트리아이나_스킨1_중파,Character/Skin/109_트리아이나_스킨1_중파.jpg,25,50,400,700
112_미스세이프티_스킨0_중파,Character/Skin/112_미스세이프티_스킨0_중파.jpg,25,50,400,700
113_켈베로스_스킨1_중파,Character/Skin/113_켈베로스_스킨1_중파.jpg,25,50,400,700
113_켈베로스_스킨3_중파,Character/Skin/113_켈베로스_스킨3_중파.jpg,25,50,400,700
117_포츈_스킨0_중파,Character/Skin/117_포츈_스킨0_중파.jpg,25,50,400,700
121_요안나_스킨0_중파,Character/Skin/121_요안나_스킨0_중파.jpg,25,50,400,700
126_아자젤_스킨1_중파,Character/Skin/126_아자젤_스킨1_중파.jpg,25,50,400,700
133_엘븐_스킨1_중파,Character/Skin/133_엘븐_스킨1_중파.jpg,25,50,400,700
134_이그니스_스킨1_중파,Character/Skin/134_이그니스_스킨1_중파.jpg,25,50,400,700
137_바바리아나_스킨0_중파,Character/Skin/137_바바리아나_스킨0_중파.jpg,25,50,400,700
137_바바리아나_스킨1_중파,Character/Skin/137_바바리아나_스킨1_중파.jpg,25,50,400,700
172_럼버제인_스킨1_중파,Character/Skin/172_럼버제인_스킨1_중파.jpg,25,50,400,700
173_블랙웜_스킨0_중파,Character/Skin/173_블랙웜_스킨0_중파.jpg,25,50,400,700